%YAML 1.1
%TAG !u! tag:unity3d.com,2011:
--- !u!114 &11400000
MonoBehaviour:
  m_ObjectHideFlags: 0
  m_CorrespondingSourceObject: {fileID: 0}
  m_PrefabInstance: {fileID: 0}
  m_PrefabAsset: {fileID: 0}
  m_GameObject: {fileID: 0}
  m_Enabled: 1
  m_EditorHideFlags: 0
  m_Script: {fileID: 11500000, guid: cbd3b7d1e912d654080f33dd958d0592, type: 3}
  m_Name: GameStart
  m_EditorClassIdentifier: 
  DeveloperDescription: Fired when a new run is started.
  response:
    m_PersistentCalls:
      m_Calls:
      - m_Target: {fileID: 11400000, guid: e660600e155f03b4299c9f37e2eb5d44, type: 2}
        m_TargetAssemblyTypeName: Toolkit.Variables.DefaultedVariable`1[[Interactable,
          Assembly-CSharp
        m_MethodName: Default
        m_Mode: 1
        m_Arguments:
          m_ObjectArgument: {fileID: 0}
          m_ObjectArgumentAssemblyTypeName: UnityEngine.Object, UnityEngine
          m_IntArgument: 0
          m_FloatArgument: 0
          m_StringArgument: 
          m_BoolArgument: 0
        m_CallState: 2
