%YAML 1.1
%TAG !u! tag:unity3d.com,2011:
--- !u!1 &577276974704701792
GameObject:
  m_ObjectHideFlags: 0
  m_CorrespondingSourceObject: {fileID: 0}
  m_PrefabInstance: {fileID: 0}
  m_PrefabAsset: {fileID: 0}
  serializedVersion: 6
  m_Component:
  - component: {fileID: 5178740987545391242}
  - component: {fileID: 5573138294894400124}
  m_Layer: 0
  m_Name: Light Probe Group
  m_TagString: Untagged
  m_Icon: {fileID: 0}
  m_NavMeshLayer: 0
  m_StaticEditorFlags: 4294967295
  m_IsActive: 1
--- !u!4 &5178740987545391242
Transform:
  m_ObjectHideFlags: 0
  m_CorrespondingSourceObject: {fileID: 0}
  m_PrefabInstance: {fileID: 0}
  m_PrefabAsset: {fileID: 0}
  m_GameObject: {fileID: 577276974704701792}
  m_LocalRotation: {x: -0, y: -0, z: -0, w: 1}
  m_LocalPosition: {x: 0, y: 2.5, z: 7}
  m_LocalScale: {x: 1, y: 1, z: 1}
  m_Children: []
  m_Father: {fileID: 0}
  m_RootOrder: 0
  m_LocalEulerAnglesHint: {x: 0, y: 0, z: 0}
--- !u!220 &5573138294894400124
LightProbeGroup:
  m_ObjectHideFlags: 0
  m_CorrespondingSourceObject: {fileID: 0}
  m_PrefabInstance: {fileID: 0}
  m_PrefabAsset: {fileID: 0}
  m_GameObject: {fileID: 577276974704701792}
  m_Enabled: 1
  m_SourcePositions:
  - {x: 6, y: 2, z: -4}
  - {x: 6, y: 2, z: -5.999999}
  - {x: 6, y: -2, z: -4}
  - {x: 6, y: -2, z: -5.999999}
  - {x: 4, y: 2, z: -4}
  - {x: 4, y: 2, z: -5.999999}
  - {x: 4, y: -2, z: -4}
  - {x: 4, y: -2, z: -5.999999}
  - {x: 2, y: 2, z: -4}
  - {x: 2, y: 2, z: -5.999999}
  - {x: 2, y: -2, z: -4}
  - {x: 2, y: -2, z: -5.999999}
  - {x: 0, y: 2, z: -4}
  - {x: 0, y: 2, z: -5.999999}
  - {x: 0, y: -2, z: -4}
  - {x: 0, y: -2, z: -7}
  - {x: -2.0610068, y: 2, z: -4}
  - {x: -2.0610068, y: 2, z: -5.999999}
  - {x: -2.0610068, y: -2, z: -4}
  - {x: -2.0610068, y: -2, z: -5.999999}
  - {x: -6, y: 2, z: -4}
  - {x: -6, y: 2, z: -5.999999}
  - {x: -6, y: -2, z: -4}
  - {x: -6, y: -2, z: -5.999999}
  - {x: 6, y: 0, z: -4}
  - {x: 6, y: 0, z: -5.999999}
  - {x: 4, y: 0, z: -4}
  - {x: 4, y: 0, z: -5.999999}
  - {x: 2, y: 0, z: -4}
  - {x: 2, y: 0, z: -5.999999}
  - {x: 0, y: 0, z: -4}
  - {x: 0, y: 0, z: -7}
  - {x: -2.0610068, y: 0, z: -4}
  - {x: -2.0610068, y: 0, z: -5.999999}
  - {x: -6, y: 0, z: -4}
  - {x: -6, y: 0, z: -5.999999}
  - {x: 6, y: 2, z: 0}
  - {x: 6, y: 2, z: -2}
  - {x: 6, y: -2, z: 0}
  - {x: 6, y: -2, z: -2}
  - {x: 4, y: 2, z: 0}
  - {x: 4, y: 2, z: -2}
  - {x: 4, y: -2, z: 0}
  - {x: 4, y: -2, z: -2}
  - {x: 2, y: 2, z: 0}
  - {x: 2, y: 2, z: -2}
  - {x: 2, y: -2, z: 0}
  - {x: 2, y: -2, z: -2}
  - {x: 0, y: 2, z: 0}
  - {x: 0, y: 2, z: -2}
  - {x: 0, y: -2, z: 0}
  - {x: 0, y: -2, z: -2}
  - {x: -2.0610068, y: 2, z: 0}
  - {x: -2.0610068, y: 2, z: -2}
  - {x: -2.0610068, y: -2, z: 0}
  - {x: -2.0610068, y: -2, z: -2}
  - {x: -6, y: 2, z: 0}
  - {x: -6, y: 2, z: -2}
  - {x: -6, y: -2, z: 0}
  - {x: -6, y: -2, z: -2}
  - {x: 6, y: 0, z: 0}
  - {x: 6, y: 0, z: -2}
  - {x: 4, y: 0, z: 0}
  - {x: 4, y: 0, z: -2}
  - {x: 2, y: 0, z: 0}
  - {x: 2, y: 0, z: -2}
  - {x: 0, y: 0, z: 0}
  - {x: 0, y: 0, z: -2}
  - {x: -2.0610068, y: 0, z: 0}
  - {x: -2.0610068, y: 0, z: -2}
  - {x: -6, y: 0, z: 0}
  - {x: -6, y: 0, z: -2}
  - {x: 6, y: 2, z: 6}
  - {x: 6, y: 2, z: 2}
  - {x: 6, y: -2, z: 6}
  - {x: 6, y: -2, z: 2}
  - {x: 4, y: 2, z: 6}
  - {x: 4, y: 2, z: 2}
  - {x: 4, y: -2, z: 6}
  - {x: 4, y: -2, z: 2}
  - {x: 2, y: 2, z: 6}
  - {x: 2, y: 2, z: 2}
  - {x: 2, y: -2, z: 6}
  - {x: 2, y: -2, z: 2}
  - {x: 0, y: 2, z: 6}
  - {x: 0, y: 2, z: 2}
  - {x: 0, y: -2, z: 7}
  - {x: 0, y: -2, z: 2}
  - {x: -2.0610068, y: 2, z: 6}
  - {x: -2.0610068, y: 2, z: 2}
  - {x: -2.0610068, y: -2, z: 6}
  - {x: -2.0610068, y: -2, z: 2}
  - {x: -6, y: 2, z: 6}
  - {x: -6, y: 2, z: 2}
  - {x: -6, y: -2, z: 6}
  - {x: -6, y: -2, z: 2}
  - {x: 6, y: 0, z: 6}
  - {x: 6, y: 0, z: 2}
  - {x: 4, y: 0, z: 6}
  - {x: 4, y: 0, z: 2}
  - {x: 2, y: 0, z: 6}
  - {x: 2, y: 0, z: 2}
  - {x: 0, y: 0, z: 7}
  - {x: 0, y: 0, z: 2}
  - {x: -2.0610068, y: 0, z: 6}
  - {x: -2.0610068, y: 0, z: 2}
  - {x: -6, y: 0, z: 6}
  - {x: -6, y: 0, z: 2}
  - {x: -4.061006, y: 2, z: -4}
  - {x: -4.061006, y: 2, z: -5.999999}
  - {x: -4.061006, y: -2, z: -4}
  - {x: -4.061006, y: -2, z: -5.999999}
  - {x: -4.061006, y: 0, z: -4}
  - {x: -4.061006, y: 0, z: -5.999999}
  - {x: -4.061006, y: 2, z: 0}
  - {x: -4.061006, y: 2, z: -2}
  - {x: -4.061006, y: -2, z: 0}
  - {x: -4.061006, y: -2, z: -2}
  - {x: -4.061006, y: 0, z: 0}
  - {x: -4.061006, y: 0, z: -2}
  - {x: -4.061006, y: 2, z: 6}
  - {x: -4.061006, y: 2, z: 2}
  - {x: -4.061006, y: -2, z: 6}
  - {x: -4.061006, y: -2, z: 2}
  - {x: -4.061006, y: 0, z: 6}
  - {x: -4.061006, y: 0, z: 2}
  - {x: 6, y: 2, z: 4.000001}
  - {x: 6, y: -2, z: 4.000001}
  - {x: 4, y: 2, z: 4.000001}
  - {x: 4, y: -2, z: 4.000001}
  - {x: 2, y: 2, z: 4.000001}
  - {x: 2, y: -2, z: 4.000001}
  - {x: 0, y: 2, z: 4.000001}
  - {x: 0, y: -2, z: 4.000001}
  - {x: -2.0610068, y: 2, z: 4.000001}
  - {x: -2.0610068, y: -2, z: 4.000001}
  - {x: -6, y: 2, z: 4.000001}
  - {x: -6, y: -2, z: 4.000001}
  - {x: 6, y: 0, z: 4.000001}
  - {x: 4, y: 0, z: 4.000001}
  - {x: 2, y: 0, z: 4.000001}
  - {x: 0, y: 0, z: 4.000001}
  - {x: -2.0610068, y: 0, z: 4.000001}
  - {x: -6, y: 0, z: 4.000001}
  - {x: -4.061006, y: 2, z: 4.000001}
  - {x: -4.061006, y: -2, z: 4.000001}
  - {x: -4.061006, y: 0, z: 4.000001}
  - {x: 0, y: 0, z: 6}
  - {x: 0, y: -2, z: 6}
  - {x: 0, y: 0, z: -5.999999}
  - {x: 0, y: -2, z: -5.999999}
  m_Dering: 1
